R-project-patent
…
Here we find a problem in the patent dataset. Indeed, some Years have values in numeric format whereas some others are in the characters format

Warning: There were 18 warnings in `mutate()`.
The first warning was:
ℹ In argument: `across(starts_with("20"), ~as.numeric(as.character(.)))`.
Caused by warning:
! NAs introduits lors de la conversion automatique
ℹ Run `dplyr::last_dplyr_warnings()` to see the 17 remaining warnings.

Mutate() will let us modify existing columns starting with “20” and the function across() will spread to all the functions staring with “20” the change from numeric values to characters.

We first create a column with all the years in it and each country’s values for every year:

# A tibble: 3,040 × 6
   freq  coop_ptn unit  geo   Years Value
   <chr> <chr>    <chr> <chr> <chr> <dbl>
 1 A     APPL     NR    AL    2004     NA
 2 A     APPL     NR    AL    2005     NA
 3 A     APPL     NR    AL    2006     NA
 4 A     APPL     NR    AL    2007     NA
 5 A     APPL     NR    AL    2008     NA
 6 A     APPL     NR    AL    2009      1
 7 A     APPL     NR    AL    2010      0
 8 A     APPL     NR    AL    2011      0
 9 A     APPL     NR    AL    2012      0
10 A     APPL     NR    AL    2013      0
# ℹ 3,030 more rows

# A tibble: 2,117 × 7
# Groups:   Years [19]
   freq  coop_ptn unit  geo   Years Value total_value
   <chr> <chr>    <chr> <chr> <chr> <dbl>       <dbl>
 1 A     APPL     NR    AL    2009      1      74700.
 2 A     APPL     NR    AL    2010      0      81737.
 3 A     APPL     NR    AL    2011      0     145471.
 4 A     APPL     NR    AL    2012      0     147453.
 5 A     APPL     NR    AL    2013      0     151519.
 6 A     APPL     NR    AL    2014      3     155720.
 7 A     APPL     NR    AL    2015      0     159520.
 8 A     APPL     NR    AL    2016      2     159611.
 9 A     APPL     NR    AL    2017      0     163424.
10 A     APPL     NR    AL    2018      0     171375.
# ℹ 2,107 more rows
…
We see a global trend of increasing the total number of patent each year in the european countries.

# A tibble: 40 × 7
# Groups:   Years [19]
   freq  coop_ptn unit  geo       Years Value total_value
   <chr> <chr>    <chr> <chr>     <chr> <dbl>       <dbl>
 1 A     APPL     NR    EU27_2020 2004  51508      51627.
 2 A     APPL     NR    EU27_2020 2005  53744      53868.
 3 A     APPL     NR    EU27_2020 2006  55197      55323.
 4 A     APPL     NR    EU27_2020 2007  57255      57386.
 5 A     APPL     NR    EU27_2020 2008  60401      60401 
 6 A     APPL     NR    EU27_2020 2009  57101      57231.
 7 A     APPL     NR    EU27_2020 2010  61235      61235 
 8 A     APPL     NR    EU27_2020 2011  59626     119359 
 9 A     APPL     NR    EU27_2020 2012  60451     120790 
10 A     APPL     NR    EU27_2020 2013  61033     121993.
# ℹ 30 more rows
…
key_indicator2 <- key_indicator |>
  mutate(across(matches("^20|^19"), ~ as.numeric(.)))

Warning: There were 75 warnings in `mutate()`.
The first warning was:
ℹ In argument: `across(matches("^20|^19"), ~as.numeric(.))`.
Caused by warning:
! NAs introduits lors de la conversion automatique
ℹ Run `dplyr::last_dplyr_warnings()` to see the 74 remaining warnings.

Code

  print(key_indicator2)

# A tibble: 682 × 80
   freq  unit  na_item    sector geo   `1949` `1950` `1951` `1952` `1953` `1954`
   <chr> <chr> <chr>      <chr>  <chr>  <dbl>  <dbl>  <dbl>  <dbl>  <dbl>  <dbl>
 1 A     PC    B2G_B3G_R… S11    AL        NA     NA     NA     NA     NA     NA
 2 A     PC    B2G_B3G_R… S11    AT        NA     NA     NA     NA     NA     NA
 3 A     PC    B2G_B3G_R… S11    BE        NA     NA     NA     NA     NA     NA
 4 A     PC    B2G_B3G_R… S11    BG        NA     NA     NA     NA     NA     NA
 5 A     PC    B2G_B3G_R… S11    CH        NA     NA     NA     NA     NA     NA
 6 A     PC    B2G_B3G_R… S11    CY        NA     NA     NA     NA     NA     NA
 7 A     PC    B2G_B3G_R… S11    CZ        NA     NA     NA     NA     NA     NA
 8 A     PC    B2G_B3G_R… S11    DE        NA     NA     NA     NA     NA     NA
 9 A     PC    B2G_B3G_R… S11    DK        NA     NA     NA     NA     NA     NA
10 A     PC    B2G_B3G_R… S11    EA20      NA     NA     NA     NA     NA     NA
# ℹ 672 more rows
# ℹ 69 more variables: `1955` <dbl>, `1956` <dbl>, `1957` <dbl>, `1958` <dbl>,
#   `1959` <dbl>, `1960` <dbl>, `1961` <dbl>, `1962` <dbl>, `1963` <dbl>,
#   `1964` <dbl>, `1965` <dbl>, `1966` <dbl>, `1967` <dbl>, `1968` <dbl>,
#   `1969` <dbl>, `1970` <dbl>, `1971` <dbl>, `1972` <dbl>, `1973` <dbl>,
#   `1974` <dbl>, `1975` <dbl>, `1976` <dbl>, `1977` <dbl>, `1978` <dbl>,
#   `1979` <dbl>, `1980` <dbl>, `1981` <dbl>, `1982` <dbl>, `1983` <dbl>, …

Here we have a big problem because each sector has its own na_item that correspond to the method of calculation. In other words, in each countries the method to evaluate the percentage of each sector in the economy of the country is different. This fact limits the rigor of the approach for any analysis based on sectors.

# A tibble: 16,368 × 58
   freq  unit  na_item    sector geo   `1949` `1950` `1951` `1952` `1953` `1954`
   <chr> <chr> <chr>      <chr>  <chr> <chr>  <chr>  <chr>  <chr>  <chr>  <chr> 
 1 A     PC    B2G_B3G_R… S11    AL    :      :      :      :      :      :     
 2 A     PC    B2G_B3G_R… S11    AL    :      :      :      :      :      :     
 3 A     PC    B2G_B3G_R… S11    AL    :      :      :      :      :      :     
 4 A     PC    B2G_B3G_R… S11    AL    :      :      :      :      :      :     
 5 A     PC    B2G_B3G_R… S11    AL    :      :      :      :      :      :     
 6 A     PC    B2G_B3G_R… S11    AL    :      :      :      :      :      :     
 7 A     PC    B2G_B3G_R… S11    AL    :      :      :      :      :      :     
 8 A     PC    B2G_B3G_R… S11    AL    :      :      :      :      :      :     
 9 A     PC    B2G_B3G_R… S11    AL    :      :      :      :      :      :     
10 A     PC    B2G_B3G_R… S11    AL    :      :      :      :      :      :     
# ℹ 16,358 more rows
# ℹ 47 more variables: `1955` <chr>, `1956` <chr>, `1957` <chr>, `1958` <chr>,
#   `1959` <chr>, `1960` <chr>, `1961` <chr>, `1962` <chr>, `1963` <chr>,
#   `1964` <chr>, `1965` <chr>, `1966` <chr>, `1967` <chr>, `1968` <chr>,
#   `1969` <chr>, `1970` <chr>, `1971` <chr>, `1972` <chr>, `1973` <chr>,
#   `1974` <chr>, `1975` <chr>, `1976` <chr>, `1977` <chr>, `1978` <chr>,
#   `1979` <chr>, `1980` <chr>, `1981` <chr>, `1982` <chr>, `1983` <chr>, …
…
Warning: There were 32 warnings in `mutate()`.
The first warning was:
ℹ In argument: `across(matches("^20|^19"), ~as.numeric(.))`.
Caused by warning:
! NAs introduits lors de la conversion automatique
ℹ Run `dplyr::last_dplyr_warnings()` to see the 31 remaining warnings.

# A tibble: 6,714 × 38
   freq  sex   age    unit  isced11 geo   `1992` `1993` `1994` `1995` `1996`
   <chr> <chr> <chr>  <chr> <chr>   <chr>  <dbl>  <dbl>  <dbl>  <dbl>  <dbl>
 1 A     F     Y15-64 PC    ED0-2   AT      NA     NA     NA     41.4   39.6
 2 A     F     Y15-64 PC    ED0-2   BA      NA     NA     NA     NA     NA  
 3 A     F     Y15-64 PC    ED0-2   BE      50.9   50.5   48.8   47.7   45.2
 4 A     F     Y15-64 PC    ED0-2   BG      NA     NA     NA     NA     NA  
 5 A     F     Y15-64 PC    ED0-2   CH      NA     NA     NA     NA     26.6
 6 A     F     Y15-64 PC    ED0-2   CY      NA     NA     NA     NA     NA  
 7 A     F     Y15-64 PC    ED0-2   CZ      NA     NA     NA     NA     NA  
 8 A     F     Y15-64 PC    ED0-2   DE      29.6   30.1   26.4   28.2   NA  
 9 A     F     Y15-64 PC    ED0-2   DK      36.6   27.8   30.7   28.6   NA  
10 A     F     Y15-64 PC    ED0-2   EA20    NA     NA     NA     NA     NA  
# ℹ 6,704 more rows
# ℹ 27 more variables: `1997` <dbl>, `1998` <dbl>, `1999` <dbl>, `2000` <dbl>,
#   `2001` <dbl>, `2002` <dbl>, `2003` <dbl>, `2004` <dbl>, `2005` <dbl>,
#   `2006` <dbl>, `2007` <dbl>, `2008` <dbl>, `2009` <dbl>, `2010` <dbl>,
#   `2011` <dbl>, `2012` <dbl>, `2013` <dbl>, `2014` <dbl>, `2015` <dbl>,
#   `2016` <dbl>, `2017` <dbl>, `2018` <dbl>, `2019` <dbl>, `2020` <dbl>,
#   `2021` <dbl>, `2022` <dbl>, `2023` <dbl>

# A tibble: 161,136 × 16
   freq  sex   age    unit  isced11 geo   `1992` `1993` `1994` `1995` `1996`
   <chr> <chr> <chr>  <chr> <chr>   <chr> <chr>  <chr>  <chr>  <chr>  <chr> 
 1 A     F     Y15-64 PC    ED0-2   AT    :      :      :      41.4   39.6  
 2 A     F     Y15-64 PC    ED0-2   AT    :      :      :      41.4   39.6  
 3 A     F     Y15-64 PC    ED0-2   AT    :      :      :      41.4   39.6  
 4 A     F     Y15-64 PC    ED0-2   AT    :      :      :      41.4   39.6  
 5 A     F     Y15-64 PC    ED0-2   AT    :      :      :      41.4   39.6  
 6 A     F     Y15-64 PC    ED0-2   AT    :      :      :      41.4   39.6  
 7 A     F     Y15-64 PC    ED0-2   AT    :      :      :      41.4   39.6  
 8 A     F     Y15-64 PC    ED0-2   AT    :      :      :      41.4   39.6  
 9 A     F     Y15-64 PC    ED0-2   AT    :      :      :      41.4   39.6  
10 A     F     Y15-64 PC    ED0-2   AT    :      :      :      41.4   39.6  
# ℹ 161,126 more rows
# ℹ 5 more variables: `1997` <chr>, `1998` <chr>, `1999` <chr>, Years <chr>,
#   Value <chr>
…
Description of the data joining, cleaning, etc. for combined data

We merged the 2 dataset we create earlier by their common variables: geo and country. And then we rename a column for clarity: country=geo

Regression

Panel regression & panel regression with lagged effect

We wanted to do a panel data analysis but there’s a huge issue with duplicates we weren’t able to fixed. I put the code with #.

[1] "Checking for duplicate country-year combinations:"

# A tibble: 407 × 3
   country  year count
   <chr>   <dbl> <int>
 1 AL       2012     2
 2 AL       2013     2
 3 AL       2014     2
 4 AL       2015     2
 5 AL       2016     2
 6 AL       2017     2
 7 AL       2018     2
 8 AL       2019     2
 9 AL       2020     2
10 AL       2021     2
# ℹ 397 more rows
…
